Task 1: Data preparation and customer analytics
…
We can see that the date column is in an integer format. Lets change this to a date format.

#### Convert DATE column to a date format
#### A quick search online tells us that CSV and Excel integer dates begin on 30 Dec 1899
transactionData$DATE <- as.Date(transactionData$DATE, origin = "1899-12-30")

We should check that we are looking at the right products by examining PROD_NAME.

#### Examine PROD_NAME
transactionData %>% group_by(PROD_NAME) %>% count()

## # A tibble: 114 x 2
## # Groups:   PROD_NAME [114]
##    PROD_NAME                                  n
##    <fct>                                  <int>
##  1 Burger Rings 220g                       1564
##  2 CCs Nacho Cheese    175g                1498
##  3 CCs Original 175g                       1514
##  4 CCs Tasty Cheese    175g                1539
##  5 Cheetos Chs & Bacon Balls 190g          1479
##  6 Cheetos Puffs 165g                      1448
##  7 Cheezels Cheese 330g                    3149
##  8 Cheezels Cheese Box 125g                1454
##  9 Cobs Popd Sea Salt  Chips 110g          3265
## 10 Cobs Popd Sour Crm  &Chives Chips 110g  3159
## # ... with 104 more rows
…
Sales are coming mainly from Budget - older families (8.7%), Mainstream - young singles/couples (8.2%), and Mainstream - retirees (8%)

Lets see if the higher sales are due to there being more customers who buy chips.

no_of_customers  <- data %>% group_by(LIFESTAGE, PREMIUM_CUSTOMER) %>% 
  summarise(customer_count = length(unique(LYLTY_CARD_NBR))) 
no_of_customers

## # A tibble: 21 x 3
## # Groups:   LIFESTAGE [7]
##    LIFESTAGE              PREMIUM_CUSTOMER customer_count
##    <fct>                  <fct>                     <int>
##  1 MIDAGE SINGLES/COUPLES Budget                     1474
##  2 MIDAGE SINGLES/COUPLES Mainstream                 3298
##  3 MIDAGE SINGLES/COUPLES Premium                    2369
##  4 NEW FAMILIES           Budget                     1087
##  5 NEW FAMILIES           Mainstream                  830
##  6 NEW FAMILIES           Premium                     575
##  7 OLDER FAMILIES         Budget                     4611
##  8 OLDER FAMILIES         Mainstream                 2788
##  9 OLDER FAMILIES         Premium                    2231
## 10 OLDER SINGLES/COUPLES  Budget                     4849
## # ... with 11 more rows
…
There are more Mainstream - young singles/couples (11.1%) and Mainstream - retirees (8.9%) who buy chips. This contributes to there being more sales to these customer segments but this is not a major driver for the Budget - Older families segment.

Higher sales may also be driven by more units of chips being bought per customer.

Lets have a look at this next.

Calculate the summary of number of customers by those dimensions and create a plot.

#### Number of customers by LIFESTAGE and PREMIUM_CUSTOMER
units <-  data %>% group_by(LIFESTAGE, PREMIUM_CUSTOMER) %>% 
  summarise(units_count = (sum(PROD_QTY)/uniqueN(LYLTY_CARD_NBR)))
units

## # A tibble: 21 x 3
## # Groups:   LIFESTAGE [7]
##    LIFESTAGE              PREMIUM_CUSTOMER units_count
##    <fct>                  <fct>                  <dbl>
##  1 MIDAGE SINGLES/COUPLES Budget                  6.03
##  2 MIDAGE SINGLES/COUPLES Mainstream              6.43
##  3 MIDAGE SINGLES/COUPLES Premium                 6.08
##  4 NEW FAMILIES           Budget                  4.82
##  5 NEW FAMILIES           Mainstream              4.89
##  6 NEW FAMILIES           Premium                 4.82
##  7 OLDER FAMILIES         Budget                  9.08
##  8 OLDER FAMILIES         Mainstream              9.26
##  9 OLDER FAMILIES         Premium                 9.07
## 10 OLDER SINGLES/COUPLES  Budget                  6.78
## # ... with 11 more rows
…
units[order(units$units_count, decreasing = TRUE), ]

## # A tibble: 21 x 3
## # Groups:   LIFESTAGE [7]
##    LIFESTAGE              PREMIUM_CUSTOMER units_count
##    <fct>                  <fct>                  <dbl>
##  1 OLDER FAMILIES         Mainstream              9.26
##  2 OLDER FAMILIES         Budget                  9.08
##  3 OLDER FAMILIES         Premium                 9.07
##  4 YOUNG FAMILIES         Budget                  8.72
##  5 YOUNG FAMILIES         Premium                 8.72
##  6 YOUNG FAMILIES         Mainstream              8.64
##  7 OLDER SINGLES/COUPLES  Budget                  6.78
##  8 OLDER SINGLES/COUPLES  Premium                 6.77
##  9 OLDER SINGLES/COUPLES  Mainstream              6.71
## 10 MIDAGE SINGLES/COUPLES Mainstream              6.43
## # ... with 11 more rows
…
pricePerUnit[order(pricePerUnit$price_per_unit, decreasing = TRUE), ]

## # A tibble: 21 x 3
## # Groups:   LIFESTAGE [7]
##    LIFESTAGE              PREMIUM_CUSTOMER price_per_unit
##    <fct>                  <fct>                     <dbl>
##  1 YOUNG SINGLES/COUPLES  Mainstream                 4.07
##  2 MIDAGE SINGLES/COUPLES Mainstream                 3.99
##  3 NEW FAMILIES           Mainstream                 3.94
##  4 RETIREES               Budget                     3.93
##  5 NEW FAMILIES           Budget                     3.93
##  6 RETIREES               Premium                    3.92
##  7 OLDER SINGLES/COUPLES  Premium                    3.90
##  8 OLDER SINGLES/COUPLES  Budget                     3.89
##  9 NEW FAMILIES           Premium                    3.89
## 10 RETIREES               Mainstream                 3.85
## # ... with 11 more rows
…
