Task2-Retail Strategy and Analytics
…
Filter to the pre-trial period and stores with full observation periods

Filter stores with full observation periods:

storesWithFullObs <- table(measureOverTime$STORE_NBR) %>% as.data.table() %>% 
  filter(N==12) %>% setNames(c("STORE_NBR", "N"))

Filter to pre-trial period:

preTrialMeasures <- subset(measureOverTime, YEARMONTH<201902 & STORE_NBR %in% storesWithFullObs$STORE_NBR)
preTrialMeasures

## # A tibble: 1,820 x 7
## # Groups:   STORE_NBR [260]
##    STORE_NBR YEARMONTH totSales nCustomers nTxnPerCust nChipsPerTxn
##        <int> <chr>        <dbl>      <int>       <dbl>        <dbl>
##  1         1 201807        207.         49        1.06         1.27
##  2         1 201808        176.         42        1.02         1.29
##  3         1 201809        279.         59        1.05         1.27
##  4         1 201810        188.         44        1.02         1.32
##  5         1 201811        193.         46        1.02         1.24
##  6         1 201812        190.         42        1.12         1.36
##  7         1 201901        155.         35        1.03         1.2 
##  8         2 201807        151.         39        1.05         1.18
##  9         2 201808        194.         39        1.10         1.41
## 10         2 201809        154.         36        1.03         1.14
## # ... with 1,810 more rows, and 1 more variable: avgPricePerUnit <dbl>
…
